>>> Warning 203 "C:\Program Files\PICC\drivers\ds1307.C" Line 108(1,1): Condition always TRUE
>>> Warning 203 "main.c" Line 264(1,1): Condition always TRUE
>>> Warning 202 "D:\проекты\проекты контроллеры\projectmaket\232\main.h" Line 16(5,8): Variable never used:   rs232_errors
>>> Warning 202 "D:\проекты\проекты контроллеры\projectmaket\232\main.h" Line 17(5,8): Variable never used:   rs232_errors
>>> Warning 202 "main.c" Line 12(6,14): Variable never used:   BuffFull
      Memory usage:   ROM=31%      RAM=41% - 46%
      0 Errors,  5 Warnings.
