004     @WRITE_PROGRAM_MEMORY8.P1
004-005 @READ_PROGRAM_MEMORY8.P2
008     PSP_DATA
015     CCP_1_HIGH
015     CCP_1
015     CCP_1_LOW
01B     CCP_2
01B     CCP_2_LOW
01B     CCP_2_HIGH
020     @INTERRUPT_AREA
021     @INTERRUPT_AREA
022     @INTERRUPT_AREA
023     @INTERRUPT_AREA
024     @INTERRUPT_AREA
025     @INTERRUPT_AREA
026     @INTERRUPT_AREA
027     @INTERRUPT_AREA
028     rs232_errors
029     rs232_errors
02A     @TRIS_C
02B-02C strtok.save
02D-030 _Randseed
031     lcd_xcoord
032     DeviceType
033     address
034     TargetAddress
035.0   BuffFull
035.1   en_rs
035.2   inper
035.3   beepen
035.4   dmov
036-03F buff_sn
040     ln_buff_rs
041     data_rs
042-05F buff_com
060     buff_count
061     data
062     en_pc
063     sec
064     min
065     hrs
066     bssec
067     bsmin
068     bshrs
069     besec
06A     bemin
06B     behrs
06C     beepstate
06D     tmp
06E-06F LcdDelay
077     @SCRATCH
078     @SCRATCH
078     _RETURN_
079     @SCRATCH
07A     @SCRATCH
07B     @SCRATCH
07F     @INTERRUPT_AREA
09C.6   C1OUT
09C.7   C2OUT
0A0-0DC buff_rs
0DD     lcd_init.i
0DD     ds1307_init.seconds
0DD     ds1307_set_date_time.day
0DD     @PUTCHAR_2_.P1
0DD     cmd.n
0DD     ds1307_get_time.@SCRATCH1
0DD     MAIN.@SCRATCH1
0DE     ds1307_set_date_time.mth
0DE     cmd.adn
0DE     lcd_init.@SCRATCH1
0DE     ds1307_init.@SCRATCH1
0DE     ds1307_get_time.@SCRATCH2
0DE     MAIN.@SCRATCH2
0DF     ds1307_set_date_time.year
0DF     cmd.cm
0DF     MAIN.@SCRATCH3
0E0     ds1307_set_date_time.dow
0E0     @PRINTF_D_359.P1
0E0     cmd.cr
0E0     @I2C_READ_1.P1
0E1     @PRINTF_D_359.P1
0E1     ds1307_set_date_time.hr
0E1     cmd.crm
0E1     @I2C_READ_1.@SCRATCH1
0E2     send_mes.ln
0E2     ds1307_set_date_time.min
0E2     bcd2bin.bcd_value
0E2     @I2C_READ_1.@SCRATCH2
0E2     cmd.@SCRATCH1
0E2     @PRINTF_D_359.@SCRATCH1
0E3     bcd2bin.temp
0E3     get_byte_of_buff.adr
0E3     ds1307_set_date_time.sec
0E3     send_mes.cr
0E3     @PRINTF_D_359.@SCRATCH2
0E4     get_byte_of_buff.rs
0E4     bin2bcd.binary_value
0E4     send_mes.n
0E4     ds1307_set_date_time.@SCRATCH1
0E4     bcd2bin.@SCRATCH1
0E4     @PRINTF_D_359.@SCRATCH3
0E5     bin2bcd.temp
0E5     get_byte_of_buff.a
0E5     @I2C_WRITE_1.P1
0E5     send_mes.@SCRATCH1
0E5     @PRINTF_D_359.@SCRATCH4
0E6     get_byte_of_buff.b
0E6     getl_byte.b
0E6     lcd_putc.c
0E6     geth_byte.b
0E6     @DIV88.P1
0E6     bin2bcd.retval
0E6     send_mes.@SCRATCH2
0E7     @DIV88.P1
0E7     lcd_gotoxy.x
0E7     @delay_ms1.P1
0E7     @PUTCHAR_BIU_1.P2
0E7     get_byte_of_buff.@SCRATCH1
0E8     lcd_gotoxy.y
0E8     @DIV88.@SCRATCH1
0E9     lcd_gotoxy.address
0EA     lcd_gotoxy.@SCRATCH1
0EB     lcd_send_byte.address
0EC     lcd_send_byte.n
0ED     lcd_read_byte.low
0ED     lcd_send_byte.@SCRATCH1
0EE     lcd_read_byte.high
0EE     lcd_send_nibble.nibble
0EF     lcd_read_nibble.retval
0EF.0   lcd_read_nibble.retval_0
0EF.1   lcd_read_nibble.retval_1
0EF.2   lcd_read_nibble.retval_2
0EF.3   lcd_read_nibble.retval_3
0EF     lcd_read_byte.@SCRATCH1
0FF     @INTERRUPT_AREA
10D-10E @READ_PROGRAM_MEMORY8.P1
10D-10E @WRITE_PROGRAM_MEMORY8.P2
110     @GETCH_2_.@SCRATCH1
110     RDA_isr.@SCRATCH1
110     EXT_isr.@SCRATCH1
111     @GETCH_2_.@SCRATCH2
111     RDA_isr.@SCRATCH2
111     EXT_isr.@SCRATCH2
17F     @INTERRUPT_AREA
1FF     @INTERRUPT_AREA
27F     @INTERRUPT_AREA
2FF     @INTERRUPT_AREA
37F     @INTERRUPT_AREA
3FF     @INTERRUPT_AREA
47F     @INTERRUPT_AREA
4FF     @INTERRUPT_AREA
57F     @INTERRUPT_AREA
5FF     @INTERRUPT_AREA
67F     @INTERRUPT_AREA
6FF     @INTERRUPT_AREA
77F     @INTERRUPT_AREA
7FF     @INTERRUPT_AREA

ROM Allocation:
00C6  @delay_ms1
0597  @PUTCHAR_BIU_1
0044  @GETCH_BIU_1
03B0  @PUTCHAR_2_
006B  @GETCH_2_
003C  LCD_INIT_STRING
00DA  lcd_send_nibble
0110  lcd_read_nibble
014C  lcd_read_byte
0148  lcd_send_byte
018B  lcd_init
069D  lcd_gotoxy
06B4  lcd_putc
0227  @I2C_READ_1
01CB  @I2C_WRITE_1
02AB  ds1307_init
0400  ds1307_set_date_time
092F  ds1307_get_time
0296  bin2bcd
0281  bcd2bin
057F  get_byte_of_buff
05AD  geth_byte
05B3  getl_byte
05BC  send_mes
0667  set_adr
065D  send_type
0611  cmd
0044  RDA_isr
006B  EXT_isr
03D6  cmd_pc
0800  MAIN
06FE  @DIV88
0715  @PRINTF_D_359
0800  @cinit
0136  StrtoulGO
0136  StrtolGO


User Memory space: 

Project Directory:
    D:\Проекты\проекты контроллеры\projectmaket\232\

Project Files:
    main.c
    main.h
    C:\Program Files\PICC\devices\16F877A.h
    C:\Program Files\PICC\drivers\stdlib.h
    C:\Program Files\PICC\drivers\stddef.h
    C:\Program Files\PICC\drivers\string.h
    C:\Program Files\PICC\drivers\ctype.h
    C:\Program Files\PICC\drivers\Flex_lcd_16x1.c
    C:\Program Files\PICC\drivers\ds1307.C

Units:
    main.c (main)

Compiler Settings:
    Processor:      PIC16F877A
    Pointer Size:   16
    ADC Range:      0-255
    Opt Level:      9
    Short,Int,Long: UNSIGNED: 1,8,16
    Float,Double:   32,32

Output Files:
    Errors:      main.err
    Ext Symbols: main.esym
    INHX8:       main.hex
    Symbols:     main.sym
    List:        main.lst
    Debug/COFF:  main.cof
    Project:     main.PJT
    Call Tree:   main.tre
    Statistics:  main.sta
