004     @WRITE_PROGRAM_MEMORY8.P1
004-005 @READ_PROGRAM_MEMORY8.P2
008     PSP_DATA
015     CCP_1
015     CCP_1_HIGH
015     CCP_1_LOW
01B     CCP_2
01B     CCP_2_HIGH
01B     CCP_2_LOW
020     @TRIS_C
021-022 strtok.save
023-026 _Randseed
027     MAIN.c
028     MAIN.oldstate
029     MAIN.state
02A     MAIN.mask
02B     MAIN.mask2
02C     MAIN.invertors
02D     MAIN.invertors2
02E     MAIN.timer
02F     MAIN.action
030     MAIN.action2
031     MAIN.tm
032     @delay_ms1.P1
032     MAIN.@SCRATCH1
033     @PUTCHAR_2_.P1
033     MAIN.@SCRATCH2
077     @SCRATCH
078     @SCRATCH
078     _RETURN_
079     @SCRATCH
07A     @SCRATCH
07B     @SCRATCH
09C.6   C1OUT
09C.7   C2OUT
10D-10E @READ_PROGRAM_MEMORY8.P1
10D-10E @WRITE_PROGRAM_MEMORY8.P2

ROM Allocation:
0047  @delay_ms1
0023  @PUTCHAR_2_
005D  MAIN
0004  @const349
000F  @const350
0019  @const351
005D  @cinit
0136  StrtoulGO
0136  StrtolGO


User Memory space: 

Project Directory:
    D:\Проекты\проекты контроллеры\projectmaket\232\

Project Files:
    main.c
    main.h
    C:\Program Files\PICC\devices\16F877A.h
    C:\Program Files\PICC\drivers\stdlib.h
    C:\Program Files\PICC\drivers\stddef.h
    C:\Program Files\PICC\drivers\string.h
    C:\Program Files\PICC\drivers\ctype.h

Units:
    main.c (main)

Compiler Settings:
    Processor:      PIC16F877A
    Pointer Size:   16
    ADC Range:      0-255
    Opt Level:      9
    Short,Int,Long: UNSIGNED: 1,8,16
    Float,Double:   32,32

Output Files:
    Errors:      main.err
    Ext Symbols: main.esym
    INHX8:       main.hex
    Symbols:     main.sym
    List:        main.lst
    Debug/COFF:  main.cof
    Project:     main.PJT
    Call Tree:   main.tre
    Statistics:  main.sta
